{
  "front-version": "2.19.1",
  "version": 3,
  "nodes": [
    {
      "type": "Project",
      "id": "02a06fb4-bf10-47b7-9c5b-4b989cbdafc0",
      "lastModified": "2019-02-07T01:47:52.184-03:00",
      "name": "restaurant"
    },
    {
      "uriEditor": true,
      "type": "Request",
      "method": {
        "requestBody": true,
        "link": "http://tools.ietf.org/html/rfc7231#section-4.3.3",
        "name": "POST"
      },
      "body": {
        "formBody": {
          "overrideContentType": true,
          "encoding": "application/x-www-form-urlencoded",
          "items": []
        },
        "bodyType": "Text",
        "autoSetLength": true
      },
      "headersType": "Form",
      "uri": {
        "query": {
          "delimiter": "&",
          "items": []
        },
        "scheme": {
          "name": "http",
          "version": "V11"
        },
        "host": "${\"SERVER\"}",
        "path": "/client/5"
      },
      "id": "0cdfab64-d3b8-40ae-bf70-ba52c16176d6",
      "lastModified": "2019-02-06T19:19:19.011-03:00",
      "name": "clientArrive",
      "headers": [
        {
          "enabled": true,
          "name": "Content-Type",
          "value": "application/json"
        }
      ],
      "metaInfo": {},
      "parentId": "02a06fb4-bf10-47b7-9c5b-4b989cbdafc0"
    },
    {
      "uriEditor": true,
      "type": "Request",
      "method": {
        "link": "http://tools.ietf.org/html/rfc7231#section-4.3.5",
        "name": "DELETE"
      },
      "body": {
        "formBody": {
          "overrideContentType": true,
          "encoding": "application/x-www-form-urlencoded",
          "items": []
        },
        "bodyType": "Text",
        "autoSetLength": true
      },
      "headersType": "Form",
      "uri": {
        "query": {
          "delimiter": "&",
          "items": []
        },
        "scheme": {
          "name": "http",
          "version": "V11"
        },
        "host": "${\"SERVER\"}",
        "path": "/client/44295874-1f27-4c61-a7ca-94a32077fe9a"
      },
      "id": "87fd63b0-d901-464c-b57e-0281677da5dc",
      "lastModified": "2019-02-07T01:47:52.184-03:00",
      "name": "clientLeave",
      "headers": [],
      "metaInfo": {},
      "parentId": "02a06fb4-bf10-47b7-9c5b-4b989cbdafc0"
    },
    {
      "uriEditor": true,
      "type": "Request",
      "method": {
        "link": "http://tools.ietf.org/html/rfc7231#section-4.3.1",
        "name": "GET"
      },
      "body": {
        "formBody": {
          "overrideContentType": true,
          "encoding": "application/x-www-form-urlencoded",
          "items": []
        },
        "bodyType": "Text",
        "autoSetLength": true
      },
      "headersType": "Form",
      "uri": {
        "query": {
          "delimiter": "&",
          "items": []
        },
        "scheme": {
          "name": "http",
          "version": "V11"
        },
        "host": "${\"SERVER\"}",
        "path": "/status"
      },
      "id": "e15f1229-bdd8-4ee9-bc93-483de01696e0",
      "lastModified": "2019-02-06T16:35:40.777-03:00",
      "name": "restaurantStatus",
      "headers": [],
      "metaInfo": {},
      "parentId": "02a06fb4-bf10-47b7-9c5b-4b989cbdafc0"
    },
    {
      "uriEditor": true,
      "type": "Request",
      "method": {
        "link": "http://tools.ietf.org/html/rfc7231#section-4.3.1",
        "name": "GET"
      },
      "body": {
        "formBody": {
          "overrideContentType": true,
          "encoding": "application/x-www-form-urlencoded",
          "items": []
        },
        "bodyType": "Text",
        "autoSetLength": true
      },
      "headersType": "Form",
      "uri": {
        "query": {
          "delimiter": "&",
          "items": []
        },
        "scheme": {
          "name": "http",
          "version": "V11"
        },
        "host": "${\"SERVER\"}",
        "path": "/waitingList"
      },
      "id": "d82c1180-22d8-4e5c-b06b-f11e26028a77",
      "lastModified": "2019-02-06T16:33:48.932-03:00",
      "name": "waitingList",
      "headers": [],
      "metaInfo": {},
      "parentId": "02a06fb4-bf10-47b7-9c5b-4b989cbdafc0"
    }
  ]
}